#26 - Halland | 

owner = A22
controller = A22
add_core = A22
culture = west_damerian
religion = regent_court

hre = yes

base_tax = 6
base_production = 6
base_manpower = 3

trade_goods = cloth
center_of_trade = 1

capital = ""

is_city = yes








add_permanent_province_modifier = {
	name = halfling_minority_coexisting_large
	duration = -1
}