# No previous file for Quapaw
owner = B36
controller = B36
add_core = B36
culture = marrodic
religion = regent_court

hre = no

base_tax = 2
base_production = 2
base_manpower = 2

trade_goods = wool

capital = ""

is_city = yes






