#921 - Bordercliff

owner = A57
controller = A57
add_core = A57
culture = arannese
religion = regent_court

hre = yes

base_tax = 3
base_production = 4
base_manpower = 2

trade_goods = livestock

capital = ""

is_city = yes











