CENTAUR_1 = {
	slot = 1
	generic = no
	ai = yes
	has_country_shield = yes
	potential = {
		culture_group = centaur
		NOT = { tag = I89 }
		NOT = { tag = I91 }
		NOT = { tag = I92 }
		NOT = { tag = I93 }
		NOT = { tag = I94 }
		NOT = { tag = I95 }
		NOT = { tag = I96 }
		NOT = { tag = I97 }
	}
	
	CENTAUR_substantial_horde = {
		icon = mission_accomodate_the_rajputs
		required_missions = { }
		position = 1
		
		trigger = {
			calc_true_if = {
				all_subject_country = {
					has_country_modifier = subjugated_horde
				}
				amount = 1
			}
			NOT = { num_of_cities = 2 }
		}
		
		effect = {
			remove_country_modifier = centaur_horde_1
			add_manpower = 1
			add_country_modifier = {
				name = centaur_horde_2
				duration = 18250
			}
		}
	}
	
	CENTAUR_sizable_horde = {
		icon = mission_accomodate_the_rajputs
		required_missions = {
			CENTAUR_substantial_horde
		}
		position = 2
		
		trigger = {
			calc_true_if = {
				all_subject_country = {
					has_country_modifier = subjugated_horde
				}
				amount = 3
			}
			NOT = { num_of_cities = 2 }
		}
		
		effect = {
			remove_country_modifier = centaur_horde_2
			add_manpower = 3
			add_country_modifier = {
				name = centaur_horde_3
				duration = 18250
			}
		}
	}
	
	CENTAUR_vast_horde = {
		icon = mission_accomodate_the_rajputs
		required_missions = {
			CENTAUR_sizable_horde
		}
		position = 3
		
		trigger = {
			calc_true_if = {
				all_subject_country = {
					has_country_modifier = subjugated_horde
				}
				amount = 5
			}
			NOT = { num_of_cities = 2 }
		}
		
		effect = {
			remove_country_modifier = centaur_horde_3
			add_manpower = 5
			add_country_modifier = {
				name = centaur_horde_4
				duration = 18250
			}
		}
	}
	
	CENTAUR_massive_horde = {
		icon = mission_accomodate_the_rajputs
		required_missions = {
			CENTAUR_vast_horde
		}
		position = 4
		
		trigger = {
			calc_true_if = {
				all_subject_country = {
					has_country_modifier = subjugated_horde
				}
				amount = 8
			}
			NOT = { num_of_cities = 2 }
		}
		
		effect = {
			remove_country_modifier = centaur_horde_4
			add_manpower = 8
			add_country_modifier = {
				name = centaur_horde_5
				duration = 18250
			}
		}
	}
	
	CENTAUR_colossal_horde = {
		icon = mission_accomodate_the_rajputs
		required_missions = {
			CENTAUR_massive_horde
		}
		position = 5
		
		trigger = {
			calc_true_if = {
				all_subject_country = {
					has_country_modifier = subjugated_horde
				}
				amount = 11
			}
			NOT = { num_of_cities = 2 }
		}
		
		effect = {
			remove_country_modifier = centaur_horde_5
			add_manpower = 15
			add_country_modifier = {
				name = centaur_horde_6
				duration = 18250
			}
		}
	}
}