country_decisions = {
	become_pirates_decision = {
		major = yes
		potential = {
			is_subject = no
			has_dlc = "Golden Century"
			NOT = { has_reform = pirate_republic_reform }
			NOT = { has_reform = merchants_reform }
			NOT = { has_reform = dutch_republic }
			NOT = { has_reform = colonial_government }
			NOT = { has_reform = shogunate }
			NOT = { has_reform = elective_monarchy }
			NOT = { has_reform = celestial_empire }
			NOT = { has_reform = daimyo }
			NOT = { is_revolutionary_republic_trigger = yes }
			NOT = { has_reform = revolutionary_empire_reform }
			NOT = { has_reform = american_republic }
			NOT = { has_reform = trading_city }
			NOT = { has_reform = free_city }
			NOT = { has_reform = federal_republic }
			NOT = { has_reform = veche_republic }
			NOT = { has_reform = merchants_reform }
			NOT = { has_reform = venice_merchants_reform }
			NOT = { tag = PAP } # just no
			NOT = { tag = A74 }
			is_emperor = no
			OR = {
				government = monarchy
				government = republic
			}
			NOT = { num_of_cities = 7 }
			NOT = {
				any_owned_province = {
					NOT = {
						AND = {
							has_port = yes
							OR = {
								region = maghreb_region
								province_is_on_an_island = yes
							}
						}
					}
				}
			}
		}
		allow = {
			stability = 2
			navy_size_percentage = 0.9
			NOT = { num_of_subjects = 1 }
			home_trade_node = {
				privateer_power = {
					country = ROOT
					share = 10
				}
			}
			is_bankrupt = no
			is_at_war = no
		}
		effect = {
			add_stability = -2
			change_government_to_republic = yes
			add_government_reform = pirate_republic_reform
			add_republican_tradition = 20
			if = {
				limit = {
					OR = {
						technology_group = tech_cannorian
					}
				}
				apply_sprite_pack = dlc098_nss_sprite_pack
			}
			if = {
				limit = {
					OR = {
						technology_group = tech_salahadesi
						technology_group = tech_bulwari
					}
				}
				apply_sprite_pack = dlc098_sle_sprite_pack
			}
		}
		ai_will_do = {
			factor = 0
		}
	}
	pirate_king_decision = {
		major = yes
		potential = {
			always = no
			has_reform = pirate_republic_reform
			NOT = { has_dlc = "Dharma" }
			NOT = { has_dlc = "Emperor" }
		}
		allow = {
			adm_tech = 12
			stability = 1
			custom_trigger_tooltip = {
				tooltip = recently_changed_government_flag_tooltip
				OR = {
					NOT = { has_country_flag = recently_changed_government_flag }
					had_country_flag = { flag = recently_changed_government_flag days = 9125 }
				}
			}
		}
		effect = {
			#set_legacy_government = pirate_kingdom
			add_stability = -1
			set_country_flag = recently_changed_government_flag
		}
		ai_will_do = {
			factor = 1
		}
	}
	black_market_consortium_decision = {
		major = yes
		potential = {
			always = no
			has_reform = pirate_republic_reform
			NOT = { has_dlc = "Dharma" }
			NOT = { has_dlc = "Emperor" }
		}
		allow = {
			adm_tech = 12
			full_idea_group = trade_ideas
			stability = 1
			custom_trigger_tooltip = {
				tooltip = recently_changed_government_flag_tooltip
				OR = {
					NOT = { has_country_flag = recently_changed_government_flag }
					had_country_flag = { flag = recently_changed_government_flag days = 9125 }
				}
			}
		}
		effect = {
			#set_legacy_government = black_market_consortium_government
			add_stability = -1
			set_country_flag = recently_changed_government_flag
		}
		ai_will_do = {
			factor = 0
		}
	}
	war_against_the_world_decision = {
		major = yes
		potential = {
			always = no
			has_reform = pirate_republic_reform
			NOT = { has_dlc = "Dharma" }
			NOT = { has_dlc = "Emperor" }
		}
		allow = {
			adm_tech = 12
			republican_tradition = 90
			stability = 1
			custom_trigger_tooltip = {
				tooltip = recently_changed_government_flag_tooltip
				OR = {
					NOT = { has_country_flag = recently_changed_government_flag }
					had_country_flag = { flag = recently_changed_government_flag days = 9125 }
				}
			}
		}
		effect = {
			add_stability = -1
			#set_legacy_government = war_against_the_world_government
			abolish_slavery_effect = yes
			set_country_flag = recently_changed_government_flag
		}
		ai_will_do = {
			factor = 0
		}
	}
	lower_black_flag_decision = {
		major = yes
		potential = {
			always = no
			has_reform = pirate_republic_reform
			NOT = { has_dlc = "Dharma" }
			NOT = { has_dlc = "Emperor" }
		}
		allow = {
			stability = 1
			custom_trigger_tooltip = {
				tooltip = recently_changed_government_flag_tooltip
				OR = {
					NOT = { has_country_flag = recently_changed_government_flag }
					had_country_flag = { flag = recently_changed_government_flag days = 9125 }
				}
			}
		}
		effect = {
			add_stability = -1
			#set_legacy_government = oligarchic_republic
			set_country_flag = recently_changed_government_flag
		}
		ai_will_do = {
			factor = 0
		}
	}
}