
namespace = anbennar_setup

#Country Setup for Monstrous Opinions
country_event = {
	id =  anbennar_setup.1
	title =  anbennar_setup.1.t
	desc =  anbennar_setup.1.d
	picture = WAR_OF_THE_ROSES_eventPicture
	
	fire_only_once = yes
	is_triggered_only = yes
	hidden = yes
	
	trigger = {
		#NOT = { is_year = 1444 }
		#NOT = { is_year = 1650 }
		always = yes
	}
	
	option = {
		name = anbennar_setup.1.a
		
		every_country = {
			limit = { has_country_modifier = monstrous_nation NOT = { has_country_flag = semi_monstrous } }
			set_country_flag = setup_monstrous_opinion
			every_country = {
				limit = { has_country_modifier = monstrous_nation }
				add_opinion = { who = PREV modifier = both_monstrous }
				reverse_add_opinion = { who = PREV modifier = both_monstrous }
			}
			every_country = {
				limit = { NOT = { has_country_modifier = monstrous_nation } }
				add_opinion = { who = PREV modifier = root_monstrous }
				reverse_add_opinion = { who = PREV modifier = root_monstrous }
			}
		}
		every_country = {
			limit = { has_country_modifier = monstrous_nation has_country_flag = semi_monstrous }
			set_country_flag = setup_monstrous_opinion
			every_country = {
				limit = { has_country_modifier = monstrous_nation }
				add_opinion = { who = PREV modifier = both_monstrous }
				reverse_add_opinion = { who = PREV modifier = both_monstrous }
			}
			every_country = {
				limit = { NOT = { has_country_modifier = monstrous_nation } }
				add_opinion = { who = PREV modifier = semi_monstrous }
				reverse_add_opinion = { who = PREV modifier = semi_monstrous }
			}
		}
	}
}

#Country Setup for Lilac Wars Parties
country_event = {
	id =  anbennar_setup.2
	title =  anbennar_setup.2.t
	desc =  anbennar_setup.2.d
	picture = WAR_OF_THE_ROSES_eventPicture
	
	#fire_only_once = yes
	hidden = yes
	is_triggered_only = yes
	
	trigger = {
		
		AND = {
			is_year = 1444
			NOT = { is_year = 1445 }
		}
		#NOT = { is_year = 1444 }
		
		tag = A01	#just for optimization I guess
		
		NOT = { has_global_flag = init_lilac_wars_parties }
	}

	
	option = {		
		name = "anbennar_setup.2.a"
		
		set_global_flag = init_lilac_wars_parties
		
		every_country = {
			limit = {
				OR = {
					has_country_flag = lilac_wars_moon_party
					has_country_flag = lilac_wars_rose_party
				}
			}
			
			# If you're a member of the Rose Party
			if = {
				limit = {
					has_country_flag = lilac_wars_rose_party
				}
				every_country = {	# Rose Party members like each other
					limit = {
						has_country_flag = lilac_wars_rose_party
						NOT = { 
							has_opinion_modifier = { who = PREV modifier = lilac_wars_rose_party_member } 
						}
					}
					add_opinion = { who = PREV modifier = lilac_wars_rose_party_member }
				}
				every_country = {	# Rose Party members dislike Moon Party
					limit = {
						has_country_flag = lilac_wars_moon_party
						NOT = { 
							has_opinion_modifier = { who = PREV modifier = lilac_wars_rose_party_enemy } 
						}
					}
					add_opinion = { who = PREV modifier = lilac_wars_rose_party_enemy }
				}
			}
		
			# If you're a member of the Moon Party
			else_if = {
				limit = {
					has_country_flag = lilac_wars_moon_party
				}
				every_country = {	# Rose Party members like each other
					limit = {
						has_country_flag = lilac_wars_moon_party
						NOT = { 
							has_opinion_modifier = { who = PREV modifier = lilac_wars_moon_party_member } 
						}
					}
					add_opinion = { who = PREV modifier = lilac_wars_moon_party_member }
				}
				every_country = {	# Rose Party members dislike Moon Party
					limit = {
						has_country_flag = lilac_wars_rose_party
						NOT = { 
							has_opinion_modifier = { who = PREV modifier = lilac_wars_moon_party_enemy } 
						}
					}
					add_opinion = { who = PREV modifier = lilac_wars_moon_party_enemy }
				}
			}
		}
	}
}

#Vision for starting discovered territories
country_event = {
	id =  anbennar_setup.3
	title =  anbennar_setup.3.t
	desc =  anbennar_setup.3.d
	picture = WAR_OF_THE_ROSES_eventPicture
	
	#fire_only_once = yes
	hidden = yes
	is_triggered_only = yes
	
	trigger = {
		is_year = 1444
		NOT = { has_country_flag = init_vision }
	}

	
	option = {		
		name = "anbennar_setup.3.a"
		
		set_country_flag = init_vision
		
		#Main Cannorian except Escann and Deepwoods
        if = {
            limit = {
				capital_scope = {
					continent = europe
				}
				NOT = {
					capital_scope = {
						region = west_castanor_region
					}
				}
				NOT = {
					capital_scope = {
						region = south_castanor_region
					}
				}
				NOT = {
					capital_scope = {
						region = inner_castanor_region
					}
				}
				NOT = {
					capital_scope = {
						superregion = deepwoods_superregion
					}
				}
				NOT = {
					has_country_modifier = monstrous_nation
				}
            }
			
			#Discover civilized Cannor
			western_cannor_superregion = {
				discover_country = ROOT
			}
			gerudia_superregion = {
				discover_country = ROOT
			}
			daravans_folly_region = {
				discover_country = ROOT
			}
			dostanor_region = {
				discover_country = ROOT
			}
			northern_pass_region = {
				undiscover_country = ROOT
			}
			southern_giants_tears_area = {
				undiscover_country = ROOT
			}
			northern_giants_tears_area = {
				undiscover_country = ROOT
			}
			1976 = {
				discover_country = ROOT
			}
			1977 = {
				discover_country = ROOT
			}
			1919 = {
				discover_country = ROOT
			}
			4157 = {
				discover_country = ROOT
			}
			4160 = {
				discover_country = ROOT
			}
			1885 = {
				discover_country = ROOT
			}
			4168 = {
				discover_country = ROOT
			}
			4161 = {
				discover_country = ROOT
			}
			4167 = {
				discover_country = ROOT
			}
			4162 = {
				discover_country = ROOT
			}
			4155 = {
				discover_country = ROOT
			}
			6168 = {
				discover_country = ROOT
			}
			
			#discover cannorian seas
			westcoast_region = {
				discover_country = ROOT
			}
			dameshead_sea_region = {
				discover_country = ROOT
			}
			giants_grave_sea_region = {
				discover_country = ROOT
			}
			#bit of reavers sea and bit of frozen thaw
			1281 = {
				discover_country = ROOT
			}
			1320 = {
				discover_country = ROOT
			}
			1476 = {
				discover_country = ROOT
			}
			1321 = {
				discover_country = ROOT
			}
			1324 = {
				discover_country = ROOT
			}
			1290 = {
				discover_country = ROOT
			}
			1436 = {
				discover_country = ROOT
			}
			
			#Discover civilized divenhal
			ourdia_region = {
				discover_country = ROOT
			}
			akan_region = {
				discover_country = ROOT
			}
			north_salahad_region = {
				discover_country = ROOT
			}
			bahar_region = {
				discover_country = ROOT
			}
			harpy_hills_region = {
				discover_country = ROOT
			}
			bulwar_proper_region = {
				discover_country = ROOT
			}
			far_bulwar_region = {
				discover_country = ROOT
			}
			seghdihr_area = {
				discover_country = ROOT
			}
			1891 = {
				discover_country = ROOT
			}
			1920 = {
				discover_country = ROOT
			}
			1921 = {
				discover_country = ROOT
			}
			1920 = {
				discover_country = ROOT
			}
			1648 = {
				discover_country = ROOT
			}
			1922 = {
				discover_country = ROOT
			}
			
			divenhal_sea_region = {
				discover_country = ROOT
			}
			
			
			#undiscover kobold underground
			if = {
				limit = {
					NOT = { culture_group = kobold }
				}
				4160 = {
					undiscover_country = ROOT
				}
				185 = {
					undiscover_country = ROOT
				}
				186 = {
					undiscover_country = ROOT
				}
				4646 = {
					undiscover_country = ROOT
				}
				dragondepth_area = {
					undiscover_country = ROOT
				}
			}
			
			#undiscover far isle and lonely isle
			far_isle_area = {
				undiscover_country = ROOT
			}
			lonely_isle_area = {
				undiscover_country = ROOT
			}	
			
			#discover far isle nearby if venail
			if = {
				limit = {
					tag = A21
				}
				1482 = {
					discover_country = ROOT
				}
				1566 = {
					discover_country = ROOT
				}
				1 = {
					discover_country = ROOT
				}
			}
			
		}
		
		#Gerudian Trolls only know Gerudia
		if = {
            limit = {
				capital_scope = {
					superregion = gerudia_superregion
				}
				culture_is_troll = yes
            }
			
			gerudia_superregion = {
				discover_country = ROOT
			}
			giants_grave_sea_region = {
				discover_country = ROOT
			}
			1324 = {
				discover_country = ROOT
			}
			1436 = {
				discover_country = ROOT
			}
			1321 = {
				discover_country = ROOT
			}
		}
		
		#Gerudians undiscover some of farther Bulwar
		if = {
            limit = {
				capital_scope = {
					superregion = gerudia_superregion
				}
            }
			
			far_bulwar_region = {
				undiscover_country = ROOT
			}
			1922 = {
				undiscover_country = ROOT
			}
			seghdihr_area = {
				undiscover_country = ROOT
			}
	
		}
		
		#North Sarhal
        if = {
            limit = {
				OR = {
					capital_scope = {
						superregion = bulwar_superregion
					}
					capital_scope = {
						superregion = salahad_superregion
					}
					capital_scope = {
						region = ourdia_region
					}
				}
            }
			
			
			#Discover civilized divenhal
			bulwar_superregion = {
				discover_country = ROOT
			}
			salahad_superregion = {
				discover_country = ROOT
			}
			ourdia_region = {
				discover_country = ROOT
			}
		
			seghdihr_area = {
				discover_country = ROOT
			}
			verkal_gulan_area = {
				discover_country = ROOT
			}
			#bulwar and salahad lakes
			1891 = {
				discover_country = ROOT
			}
			1920 = {
				discover_country = ROOT
			}
			1921 = {
				discover_country = ROOT
			}
			1920 = {
				discover_country = ROOT
			}
			1648 = {
				discover_country = ROOT
			}
			1922 = {
				discover_country = ROOT
			}
			
			#salahadesi deserts
			1793 = {
				discover_country = ROOT
			}
			1794 = {
				discover_country = ROOT
			}
			1795 = {
				discover_country = ROOT
			}
			3190 = {
				discover_country = ROOT
			}
			3191 = {
				discover_country = ROOT
			}
			3192 = {
				discover_country = ROOT
			}
			6109 = {
				discover_country = ROOT
			}
			6108 = {
				discover_country = ROOT
			}
			6106 = {
				discover_country = ROOT
			}
			6105 = {
				discover_country = ROOT
			}
			
			divenhal_sea_region = {
				discover_country = ROOT
			}
			
			
			#discover southern cannorian
			ourdia_region = {
				discover_country = ROOT
			}
			businor_region = {
				discover_country = ROOT
			}
			the_borders_region = {
				discover_country = ROOT
			}
			esmaria_region = {
				discover_country = ROOT
			}
			east_dameshead_region = {
				discover_country = ROOT
			}
			west_dameshead_region = {
				discover_country = ROOT
			}
			lencenor_region = {
				discover_country = ROOT
			}
			small_country_region = {
				discover_country = ROOT
			}
			damescrown_region = {
				discover_country = ROOT
			}
			iochand_area = {
				discover_country = ROOT
			}
			
			dameshead_sea_region = {
				discover_country = ROOT
			}
			westcoast_region = {
				discover_country = ROOT
			}
			4162 = {
				discover_country = ROOT
			}
			4167 = {
				discover_country = ROOT
			}
			4157 = {
				discover_country = ROOT
			}
			1976 = {
				discover_country = ROOT
			}
			1919 = {
				discover_country = ROOT
			}
			
		}
		
		#Hobgoblins
        if = {
            limit = {
				OR = {
					technology_group = tech_hobgoblin
					capital_scope = {
						region = jade_mines_region
					}
				}
            }
			rahen_superregion = {
				discover_country = ROOT
			}
			yanshen_superregion = {
				discover_country = ROOT
			}
			south_haless_superregion = {
				limit = { NOT = { province_group = lupulan_rainforest_interior } }
				discover_country = ROOT
			}
			gulf_of_rahen_region = {
				discover_country = ROOT
			}
			jade_mines_region = {
				discover_country = ROOT
			}
			2200 = {
				discover_country = ROOT
			}
			
			#Rahen Wastelands
			1788 = {
				discover_country = ROOT
			}
			1786 = {
				discover_country = ROOT
			}
			1896 = {
				discover_country = ROOT
			}
		}
		
		#Far Salahad - undiscover some bits of Cannor, discover Rahen
		if = {
			limit = {
				capital_scope = {
					region = far_salahad_region
				}
			}
			small_country_region = {
				undiscover_country = ROOT
			}
			damescrown_region = {
				undiscover_country = ROOT
			}
			the_borders_region = {
				undiscover_country = ROOT
			}
			esmaria_region = {
				undiscover_country = ROOT
			}
			iochand_area = {
				undiscover_country = ROOT
			}
			bulwar_superregion = {
				discover_country = ROOT
			}
			rahen_superregion = {
				discover_country = ROOT
			}
			gulf_of_rahen_region = {
				discover_country = ROOT
			}
			
			#Rahen Wastelands
			1788 = {
				discover_country = ROOT
			}
			1786 = {
				discover_country = ROOT
			}
			1896 = {
				discover_country = ROOT
			}
		}
		
		#Escanni Adventurers and Orcs
		if = {
			limit = {
				OR = {
					capital_scope = {
						superregion = escann_superregion
					}
					capital_scope = {
						region = forlorn_vale_region
					}
				}
				NOT = {
					capital_scope = {
						region = dostanor_region
					}
				}
				NOT = {
					capital_scope = {
						region = ourdia_region
					}
				}
				NOT = {
					capital_scope = {
						region = daravans_folly_region
					}
				}
				# NOT = {
					# capital_scope = {
						# continent = serpentspine
					# }
				# }
			}
			west_castanor_region = {
				discover_country = ROOT
			}
			inner_castanor_region = {
				discover_country = ROOT
			}
			south_castanor_region = {
				discover_country = ROOT
			}
			1326 = {
				discover_country = ROOT
			}
			

			
			#if you're an adventurer in serpentspine discover rest of cannor
			if = {
				limit = {
					has_reform = adventurer_reform
				}
				#Discover civilized Cannor
				western_cannor_superregion = {
					discover_country = ROOT
				}
				gerudia_superregion = {
					discover_country = ROOT
				}
				daravans_folly_region = {
					discover_country = ROOT
				}
				dostanor_region = {
					discover_country = ROOT
				}
				northern_pass_region = {
					undiscover_country = ROOT
				}
				southern_giants_tears_area = {
					undiscover_country = ROOT
				}
				northern_giants_tears_area = {
					undiscover_country = ROOT
				}
				1976 = {
					discover_country = ROOT
				}
				1977 = {
					discover_country = ROOT
				}
				1919 = {
					discover_country = ROOT
				}
				4157 = {
					discover_country = ROOT
				}
				4160 = {
					discover_country = ROOT
				}
				4168 = {
					discover_country = ROOT
				}
				4161 = {
					discover_country = ROOT
				}
				4167 = {
					discover_country = ROOT
				}
				4162 = {
					discover_country = ROOT
				}
				4155 = {
					discover_country = ROOT
				}
				6168 = {
					discover_country = ROOT
				}
				
				#discover cannorian seas
				westcoast_region = {
					discover_country = ROOT
				}
				dameshead_sea_region = {
					discover_country = ROOT
				}
				giants_grave_sea_region = {
					discover_country = ROOT
				}
				#bit of reavers sea and bit of frozen thaw
				1281 = {
					discover_country = ROOT
				}
				1320 = {
					discover_country = ROOT
				}
				1476 = {
					discover_country = ROOT
				}
				1321 = {
					discover_country = ROOT
				}
				1324 = {
					discover_country = ROOT
				}
				1290 = {
					discover_country = ROOT
				}
				1436 = {
					discover_country = ROOT
				}
				
				#Discover civilized divenhal
				ourdia_region = {
					discover_country = ROOT
				}
				akan_region = {
					discover_country = ROOT
				}
				north_salahad_region = {
					discover_country = ROOT
				}
				bahar_region = {
					discover_country = ROOT
				}
				harpy_hills_region = {
					discover_country = ROOT
				}
				bulwar_proper_region = {
					discover_country = ROOT
				}
				far_bulwar_region = {
					discover_country = ROOT
				}
				seghdihr_area = {
					discover_country = ROOT
				}
				1891 = {
					discover_country = ROOT
				}
				1920 = {
					discover_country = ROOT
				}
				1921 = {
					discover_country = ROOT
				}
				1920 = {
					discover_country = ROOT
				}
				1648 = {
					discover_country = ROOT
				}
				1922 = {
					discover_country = ROOT
				}
				
				divenhal_sea_region = {
					discover_country = ROOT
				}
				
				
				#undiscover kobold underground
				if = {
					limit = {
						NOT = { culture_group = kobold }
					}
					4160 = {
						undiscover_country = ROOT
					}
					185 = {
						undiscover_country = ROOT
					}
					186 = {
						undiscover_country = ROOT
					}
					4646 = {
						undiscover_country = ROOT
					}
					dragondepth_area = {
						undiscover_country = ROOT
					}
				}
				
				#undiscover far isle and lonely isle
				far_isle_area = {
					undiscover_country = ROOT
				}
				lonely_isle_area = {
					undiscover_country = ROOT
				}	

			}
			
		}
		
		#Orcs and goblins in alenic and north
		if = {
			limit = {
				OR = {
					culture_group = orcish
					culture_group = goblin
				}
				OR = {
					capital_scope = {
						region = alenic_reach_region
					}
					capital_scope = {
						region = gerudian_coast_region
					}
					capital_scope = {
						region = northern_pass_region
					}
				}
				# capital_scope = {
					# area = southern_giants_tears_area
				# }
				# capital_scope = {
					# area = northern_giants_tears_area
				# }
			}
			gerudian_coast_region = {
				discover_country = ROOT
			}
			1885 = {
				discover_country = ROOT
			}
			4146 = {
				discover_country = ROOT
			}
			alenic_reach_region = {
				discover_country = ROOT
			}
			1889 = {
				discover_country = ROOT
			}
			giants_grave_sea_region = {
				discover_country = ROOT
			}
			northern_pass_region = {
				discover_country = ROOT
			}
			west_castanor_region = {
				discover_country = ROOT
			}
			inner_castanor_region = {
				discover_country = ROOT
			}
		}
		
		#Serpentspine
		if = {
			limit = {
				capital_scope = {
					continent = serpentspine
				}
			}
			capital_scope = {
				every_neighbor_province = {
					discover_country = ROOT
				}
				every_empty_neighbor_province  = {
					discover_country = ROOT
				}
				
			}
			
			#if you're an adventurer in serpentspine discover rest of cannor
			if = {
				limit = {
					has_reform = adventurer_reform
				}
				#Discover civilized Cannor
				western_cannor_superregion = {
					discover_country = ROOT
				}
				gerudia_superregion = {
					discover_country = ROOT
				}
				daravans_folly_region = {
					discover_country = ROOT
				}
				dostanor_region = {
					discover_country = ROOT
				}
				northern_pass_region = {
					undiscover_country = ROOT
				}
				southern_giants_tears_area = {
					undiscover_country = ROOT
				}
				northern_giants_tears_area = {
					undiscover_country = ROOT
				}
				1976 = {
					discover_country = ROOT
				}
				1977 = {
					discover_country = ROOT
				}
				1919 = {
					discover_country = ROOT
				}
				4157 = {
					discover_country = ROOT
				}
				4160 = {
					discover_country = ROOT
				}
				4168 = {
					discover_country = ROOT
				}
				4161 = {
					discover_country = ROOT
				}
				4167 = {
					discover_country = ROOT
				}
				4162 = {
					discover_country = ROOT
				}
				4155 = {
					discover_country = ROOT
				}
				6168 = {
					discover_country = ROOT
				}
				
				#discover cannorian seas
				westcoast_region = {
					discover_country = ROOT
				}
				dameshead_sea_region = {
					discover_country = ROOT
				}
				giants_grave_sea_region = {
					discover_country = ROOT
				}
				#bit of reavers sea and bit of frozen thaw
				1281 = {
					discover_country = ROOT
				}
				1320 = {
					discover_country = ROOT
				}
				1476 = {
					discover_country = ROOT
				}
				1321 = {
					discover_country = ROOT
				}
				1324 = {
					discover_country = ROOT
				}
				1290 = {
					discover_country = ROOT
				}
				1436 = {
					discover_country = ROOT
				}
				
				#Discover civilized divenhal
				ourdia_region = {
					discover_country = ROOT
				}
				akan_region = {
					discover_country = ROOT
				}
				north_salahad_region = {
					discover_country = ROOT
				}
				bahar_region = {
					discover_country = ROOT
				}
				harpy_hills_region = {
					discover_country = ROOT
				}
				bulwar_proper_region = {
					discover_country = ROOT
				}
				far_bulwar_region = {
					discover_country = ROOT
				}
				seghdihr_area = {
					discover_country = ROOT
				}
				1891 = {
					discover_country = ROOT
				}
				1920 = {
					discover_country = ROOT
				}
				1921 = {
					discover_country = ROOT
				}
				1920 = {
					discover_country = ROOT
				}
				1648 = {
					discover_country = ROOT
				}
				1922 = {
					discover_country = ROOT
				}
				
				divenhal_sea_region = {
					discover_country = ROOT
				}
				
				
				#undiscover kobold underground
				if = {
					limit = {
						NOT = { culture_group = kobold }
					}
					4160 = {
						undiscover_country = ROOT
					}
					185 = {
						undiscover_country = ROOT
					}
					186 = {
						undiscover_country = ROOT
					}
					4646 = {
						undiscover_country = ROOT
					}
					dragondepth_area = {
						undiscover_country = ROOT
					}
				}
				
				#undiscover far isle and lonely isle
				far_isle_area = {
					undiscover_country = ROOT
				}
				lonely_isle_area = {
					undiscover_country = ROOT
				}	
				
				4153 = {
					undiscover_country = ROOT
				}

			}
			
				#make verkal gulan and seghdihr discover each other, middle serpentspine and bulwar
				if = {
					limit = {
						OR = {
							tag = H78
							tag = F47
						}
					}
					middle_dwarovar_region = {
						discover_country = ROOT
					}
					2608 = {
						discover_country = ROOT
					}
					
					#Discover civilized divenhal
					ourdia_region = {
						discover_country = ROOT
					}
					akan_region = {
						discover_country = ROOT
					}
					north_salahad_region = {
						discover_country = ROOT
					}
					bahar_region = {
						discover_country = ROOT
					}
					harpy_hills_region = {
						discover_country = ROOT
					}
					bulwar_proper_region = {
						discover_country = ROOT
					}
					far_bulwar_region = {
						discover_country = ROOT
					}
					far_salahad_region = {
						discover_country = ROOT
					}
					seghdihr_area = {
						discover_country = ROOT
					}
					1891 = {
						discover_country = ROOT
					}
					1920 = {
						discover_country = ROOT
					}
					1921 = {
						discover_country = ROOT
					}
					1920 = {
						discover_country = ROOT
					}
					1648 = {
						discover_country = ROOT
					}
					1922 = {
						discover_country = ROOT
					}
					
					#salahadesi deserts
					1793 = {
						discover_country = ROOT
					}
					1794 = {
						discover_country = ROOT
					}
					1795 = {
						discover_country = ROOT
					}
					3190 = {
						discover_country = ROOT
					}
					3191 = {
						discover_country = ROOT
					}
					
					divenhal_sea_region = {
						discover_country = ROOT
					}
					
				}
		}
		
		
		#Kobolds dragon coast
		if = {
			limit = {
				OR = {
					capital_scope = {
						region = dragon_coast_region
					}
					capital_scope = {
						region = alenic_frontier_region
					}
				}
				culture_group = kobold
			}
			
			dragon_coast_region = {
				discover_country = ROOT
			}
			bay_of_dragons_area = {
				discover_country = ROOT
			}
			1281 = {
				discover_country = ROOT
			}
			1320 = {
				discover_country = ROOT
			}
			1321 = {
				discover_country = ROOT
			}
			4160 = {
				discover_country = ROOT
			}
			6168 = {
				discover_country = ROOT
			}
			small_country_region = {
				discover_country = ROOT
			}
			
			westmoor_proper_area = {
				discover_country = ROOT
			}
			moorhills_area = {
				discover_country = ROOT
			}
			beronmoor_area = {
				discover_country = ROOT
			}
			coddorran_heights_area = {
				discover_country = ROOT
			}
			storm_isles_area = {
				discover_country = ROOT
			}
			mawriver_area = {
				discover_country = ROOT
			}
			westmounts_area = {
				discover_country = ROOT
			}
			
		}
		
		
		#Hill Gnolls
		if = {
			limit = { tag = A49 }
			businor_region = {
				discover_country = ROOT
			}
			4167 = {
				discover_country = ROOT
			}
			4162 = {
				discover_country = ROOT
			}
			east_dameshead_region = {
				discover_country = ROOT
			}
			the_borders_region = {
				discover_country = ROOT
			}
			daravans_folly_region = {
				discover_country = ROOT
			}
			ourdia_region = {
				discover_country = ROOT
			}
			sea_of_stone_area = {
				discover_country = ROOT
			}
			sea_of_follies_area = {
				discover_country = ROOT
			}
			damesneck_sea_area = {
				discover_country = ROOT
			}
			1282 = {
				discover_country = ROOT
			}
			1280 = {
				discover_country = ROOT
			}
			1975 = {
				discover_country = ROOT
			}
		}
		
		#Rahen
        if = {
            limit = {
				OR = {
					capital_scope = {
						superregion = rahen_superregion
					}
				}
            }
			far_salahad_region = {
				discover_country = ROOT
			}
			far_bulwar_region = {
				discover_country = ROOT
			}
			rahen_superregion = {
				discover_country = ROOT
			}
			yanshen_superregion = {
				discover_country = ROOT
			}
			south_haless_superregion = {
				limit = { NOT = { province_group = lupulan_rainforest_interior } }
				discover_country = ROOT
			}
			gulf_of_rahen_region = {
				discover_country = ROOT
			}
			ringlet_sea_region = {
				discover_country = ROOT
			}
			northeast_haless_coast_region = {
				discover_country = ROOT
			}
			
			#Rahen Wastelands
			1788 = {
				discover_country = ROOT
			}
			1786 = {
				discover_country = ROOT
			}
			1896 = {
				discover_country = ROOT
			}
			
			#Haless Wastelands
			4170 = {
				discover_country = ROOT
			}
			2334 = {
				discover_country = ROOT
			}
			
			#Yanshen Lakes
			1900 = {
				discover_country = ROOT
			}
			1899 = {
				discover_country = ROOT
			}
			
			#salahad lake
			1922 = {
				discover_country = ROOT
			}
			
			#salahadesi deserts
			1795 = {
				discover_country = ROOT
			}
			3190 = {
				discover_country = ROOT
			}
			3191 = {
				discover_country = ROOT
			}
			3192 = {
				discover_country = ROOT
			}
		}
		
		#Yanshen
        if = {
            limit = {
				OR = {
					capital_scope = {
						OR = {
							superregion = yanshen_superregion
						}
					}
				}
            }
			rahen_superregion = {
				discover_country = ROOT
			}
			yanshen_superregion = {
				discover_country = ROOT
			}
			south_haless_superregion = {
				limit = { NOT = { province_group = lupulan_rainforest_interior } }
				discover_country = ROOT
			}
			gulf_of_rahen_region = {
				discover_country = ROOT
			}
			ringlet_sea_region = {
				discover_country = ROOT
			}
			northeast_haless_coast_region = {
				discover_country = ROOT
			}
			
			#Rahen Wastelands
			1788 = {
				discover_country = ROOT
			}
			1786 = {
				discover_country = ROOT
			}
			1896 = {
				discover_country = ROOT
			}
			
			#Haless Wastelands
			4170 = {
				discover_country = ROOT
			}
			2334 = {
				discover_country = ROOT
			}
			
			#Yanshen Lakes
			1900 = {
				discover_country = ROOT
			}
			1899 = {
				discover_country = ROOT
			}
		}
		
		#South Haless
        if = {
            limit = {
				OR = {
					capital_scope = {
						OR = {
							superregion = south_haless_superregion
						}
						NOT = { region = lupulan_rainforest_region }
					}
				}
            }
			rahen_superregion = {
				discover_country = ROOT
			}
			yanshen_superregion = {
				discover_country = ROOT
			}
			south_haless_superregion = {
				limit = { NOT = { province_group = lupulan_rainforest_interior } }
				discover_country = ROOT
			}
			gulf_of_rahen_region = {
				discover_country = ROOT
			}
			ringlet_sea_region = {
				discover_country = ROOT
			}
			northeast_haless_coast_region = {
				discover_country = ROOT
			}
			
			#Rahen Wastelands
			1788 = {
				discover_country = ROOT
			}
			1786 = {
				discover_country = ROOT
			}
			1896 = {
				discover_country = ROOT
			}
			
			#Haless Wastelands
			4170 = {
				discover_country = ROOT
			}
			2334 = {
				discover_country = ROOT
			}
			
			#Yanshen Lakes
			1900 = {
				discover_country = ROOT
			}
			1899 = {
				discover_country = ROOT
			}
		}
		
		#Lupulan Rainforest
        if = {
            limit = {
				OR = {
					capital_scope = {
						OR = {
							region = lupulan_rainforest_region
						}
					}
				}
            }
			rahen_superregion = {
				discover_country = ROOT
			}
			yanshen_superregion = {
				discover_country = ROOT
			}
			south_haless_superregion = {
				discover_country = ROOT
			}
			gulf_of_rahen_region = {
				discover_country = ROOT
			}
			ringlet_sea_region = {
				discover_country = ROOT
			}
			northeast_haless_coast_region = {
				discover_country = ROOT
			}
			
			#Rahen Wastelands
			1788 = {
				discover_country = ROOT
			}
			1786 = {
				discover_country = ROOT
			}
			1896 = {
				discover_country = ROOT
			}
			
			#Haless Wastelands
			4170 = {
				discover_country = ROOT
			}
			2334 = {
				discover_country = ROOT
			}
			
			#South Haless Lakes
			1898 = {
				discover_country = ROOT
			}
			
			#Yanshen Lakes
			1900 = {
				discover_country = ROOT
			}
			1899 = {
				discover_country = ROOT
			}
		}
		
		#taychend and kheionai
        if = {
            limit = {
				# OR = {
					# culture_group = taychendi_ruinborn_elf
					# culture_group = kheionai_ruinborn_elf
					# culture_group = eltibhari_ruinborn_elf
					# culture_group = devandi_ruinborn_elf
				# }
				
				OR = {
					capital_scope = {
						superregion = greater_taychend_superregion
					}
					capital_scope = {
						superregion = kheionai_superregion
					}
				}
            }
			greater_taychend_superregion = {
				discover_country = ROOT
			}
			kheionai_superregion = {
				discover_country = ROOT
			}
			cleaved_sea_area = {
				discover_country = ROOT
			}
			south_aelantir_coast_area = {
				discover_country = ROOT
			}
			#discover mountains and lakes
			2936 = {
				discover_country = ROOT
			}
			1663 = {
				discover_country = ROOT
			}
			2194 = {
				discover_country = ROOT
			}
			1779 = {
				discover_country = ROOT
			}
			
			1785 = {
				discover_country = ROOT
			}
			1791 = {
				discover_country = ROOT
			}
			1662 = {
				discover_country = ROOT
			}


			#undiscover some effelai
			1538 = {
				undiscover_country = ROOT
			}
			1539 = {
				undiscover_country = ROOT
			}
			1540 = {
				undiscover_country = ROOT
			}
			
			#undiscover some east seas
			1595 = {
				undiscover_country = ROOT
			}
			1593 = {
				undiscover_country = ROOT
			}
			1718 = {
				undiscover_country = ROOT
			}
			1706 = {
				undiscover_country = ROOT
			}
			
			
			#discover some kaydhano
			1711 = {
				discover_country = ROOT
			}
			1549 = {
				discover_country = ROOT
			}
			1550 = {
				discover_country = ROOT
			}
		}
		
		#eordand
        if = {
            limit = {
				capital_scope = {
					superregion = eordand_superregion
				}
            }
			eordand_superregion = {
				discover_country = ROOT
			}
			1587 = {
				discover_country = ROOT
			}
			1693 = {
				discover_country = ROOT
			}
			1695 = {
				discover_country = ROOT
			}
			1690 = {
				discover_country = ROOT
			}
			1391 = {
				discover_country = ROOT
			}
			1689 = {
				discover_country = ROOT
			}
			1683 = {
				discover_country = ROOT
			}
			1396 = {
				discover_country = ROOT
			}
		}
		
		#ynn
        if = {
            limit = {
				capital_scope = {
					superregion = ynn_superregion
				}
            }
			sarda_region = {
				discover_country = ROOT
			}
			dolindha_region = {
				discover_country = ROOT
			}
			rzenta_region = {
				discover_country = ROOT
			}
			pomvasonn_area = {
				discover_country = ROOT
			}
		}
		
		#noruin
        if = {
            limit = {
				OR = {
					capital_scope = {
						region = bloodgroves_region
					}
					capital_scope = {
						region = trollsbay_region
					}
					capital_scope = {
						region = reapers_coast_region
					}
				}
            }
			bloodgroves_region = {
				discover_country = ROOT
			}
			trollsbay_region = {
				discover_country = ROOT
			}
			reapers_coast_region = {
				discover_country = ROOT
			}
			silsenald_isles_area = {
				discover_country = ROOT
			}
			great_tussock_area = {
				discover_country = ROOT
			}
			saamirses_area = {
				discover_country = ROOT
			}
			isles_of_transition_area = {
				discover_country = ROOT
			}
			unstill_waters_area = {
				discover_country = ROOT
			}
			#Sea tiles
			trollsbay_coast_area = {
				discover_country = ROOT
			}
			reapers_coast_area = {
				discover_country = ROOT
			}
			1531 = {
				discover_country = ROOT
			}
			1583 = {
				discover_country = ROOT
			}
			1500 = {
				discover_country = ROOT
			}
			1674 = {
				discover_country = ROOT
			}
		}
		
		#haraf
		if = {
			limit = {
				capital_scope = {
					region = haraf_region
				}
			}
			haraf_region = {
				discover_country = ROOT
			}
			guardian_islands_area = {
				discover_country = ROOT
			}
			2155 = {
				discover_country = ROOT
			}
			#Sea tiles
			1557 = {
				discover_country = ROOT
			}
			1559 = {
				discover_country = ROOT
			}
			1560 = {
				discover_country = ROOT
			}
			1561 = {
				discover_country = ROOT
			}
			1720 = {
				discover_country = ROOT
			}
			1682 = {
				discover_country = ROOT
			}
			1445 = {
				discover_country = ROOT
			}
			1678 = {
				discover_country = ROOT
			}
			#Wasteland
			1811 = {
				discover_country = ROOT
			}
		}
		
		#amadia
		if = {
			limit = {
				capital_scope = {
					region = amadia_region
				}
			}
			amadia_region = {
				discover_country = ROOT
			}
			#Sea tiles
			1552 = {
				discover_country = ROOT
			}
			1553 = {
				discover_country = ROOT
			}
			1555 = {
				discover_country = ROOT
			}
			1556 = {
				discover_country = ROOT
			}
			#Wasteland
			2740 = {
				discover_country = ROOT
			}
			2251 = {
				discover_country = ROOT
			}
			#Lakes
			1657 = {
				discover_country = ROOT
			}
			1660 = {
				discover_country = ROOT
			}
		}
		
		#leechdens
		if = {
			limit = {
				capital_scope = {
					region = leechdens_region
				}
			}
			leechdens_region = {
				discover_country = ROOT
			}
			#Sea tiles
			leechdens_area = {
				discover_country = ROOT
			}
			#Lakes
			1916 = {
				discover_country = ROOT
			}
			1914 = {
				discover_country = ROOT
			}
			1917 = {
				discover_country = ROOT
			}
			1918 = {
				discover_country = ROOT
			}
			1661 = {
				discover_country = ROOT
			}
			1913 = {
				discover_country = ROOT
			}
			1912 = {
				discover_country = ROOT
			}
			1659 = {
				discover_country = ROOT
			}
			1915 = {
				discover_country = ROOT
			}
		}
		
		#make deepwoods unknown for all except deepwood, deepwood only knows itself
        if = {
            limit = {
				capital_scope = {
					superregion = deepwoods_superregion
				}
            }
			deepwoods_superregion = {
				discover_country = ROOT
			}
			1782 = {
				discover_country = ROOT
			}
			1261 = {
				discover_country = ROOT
			}
		}
		
		if = {
			limit = {
				capital_scope = {
					superregion = forbidden_lands_superregion
				}
			}
			forbidden_lands_superregion = {
				discover_country = ROOT
			}
			1327 = {
				discover_country = ROOT
			}
			northern_sea_region = {
				discover_country = ROOT
			}
			1784 = {
				discover_country = ROOT
			}
			if = {
				limit = {
					owns = 5304
				}
				5304 = {
					add_great_project = city_canal
					add_construction_progress = 1
					add_permanent_province_modifier = {
						name = city_canal
						duration = -1
					}
				}
			}
		}
	
	}
}

#Pragmatic Sanction and prob other misc initializers
country_event = {
	id =  anbennar_setup.4
	title =  anbennar_setup.4.t
	desc =  anbennar_setup.4.d
	picture = WAR_OF_THE_ROSES_eventPicture
	
	fire_only_once = yes
	hidden = yes
	is_triggered_only = yes
	
	# trigger = {
		# NOT = { is_year = 1444 }
	# }
	
	option = {		
		name = "anbennar_setup.4.a"
		
		#civilized boyos
       set_allow_female_emperor = yes
	   
	   if = {
			limit = {
				has_dlc = "Art of War"
			}
			set_hre_religion = regent_court
			set_hre_heretic_religion = corinite
	   }
	}
}

#Remove the Monstrous opinion
#Disactivated beccause of monstrous opinion rework
country_event = {
	id =  anbennar_setup.5
	title =  anbennar_setup.5.t
	desc =  anbennar_setup.5.d
	picture = WAR_OF_THE_ROSES_eventPicture
	
	fire_only_once = yes
	hidden = yes
	is_triggered_only = yes #Disactivated
	
	trigger = {
		always = no #Disactivated
		is_year = 1651
	}
	
	option = {		
		name = "anbennar_setup.5.a"
		
		every_country = {	#remove all monstrous opinion
			remove_opinion = { who = ROOT modifier = both_monstrous }
			remove_opinion = { who = ROOT modifier = root_monstrous }
		}
	}
			# every_country = {	#If you're not a monstrous nation you hate monstrous nations
				# limit = {
					# #NOT = { has_country_modifier = monstrous_nation }
					# NOT = { 
						# has_opinion_modifier = { who = ROOT modifier = root_monstrous } 
					# }
				# }
				# remove_opinion = { who = ROOT modifier = root_monstrous }
			# }
			# every_country = {	#If you're a monstrous nation you like other monstrous nations
				# limit = {
					# has_country_modifier = monstrous_nation
					# NOT = { 
						# has_opinion_modifier = { who = ROOT modifier = root_monstrous } 
					# }
				# }
				# remove_opinion = { who = ROOT modifier = root_monstrous }
			# }
		
        # if = {
            # limit = {
                # has_country_modifier = monstrous_nation
            # }
			# every_country = {	#If you're a monstrous nation you like other monstrous nations
				# limit = {
					# #has_country_modifier = monstrous_nation
					# NOT = { 
						# has_opinion_modifier = { who = ROOT modifier = both_monstrous } 
					# }
				# }
				# remove_opinion = { who = ROOT modifier = both_monstrous }
			# }
			# every_country = {	#If you're not a monstrous nation you hate monstrous nations
				# limit = {
					# #NOT = { has_country_modifier = monstrous_nation }
					# NOT = { 
						# has_opinion_modifier = { who = ROOT modifier = root_monstrous } 
					# }
				# }
				# remove_opinion = { who = ROOT modifier = root_monstrous }
			# }
		# }
		
        # if = {
            # limit = {
                # NOT = { has_country_modifier = monstrous_nation }
            # }
			# every_country = {	#If you're a monstrous nation you like other monstrous nations
				# limit = {
					# has_country_modifier = monstrous_nation
					# NOT = { 
						# has_opinion_modifier = { who = ROOT modifier = root_monstrous } 
					# }
				# }
				# remove_opinion = { who = ROOT modifier = root_monstrous }
			# }
		# }
	#}
}


#Base Setup for Mage Type
country_event = {
	id =  anbennar_setup.6
	title =  anbennar_setup.6.t
	desc =  anbennar_setup.6.d
	picture = WAR_OF_THE_ROSES_eventPicture
	
	#fire_only_once = yes
	hidden = yes
	is_triggered_only = yes
	
	trigger = {
		has_mages_organization_privilege = no
		has_estate = estate_mages
	}	

	
	option = {
		name = "anbennar_setup.6.a"
		if = {
			limit = {
				has_country_flag = mage_organization_decentralized_flag
			}
			set_estate_privilege = estate_mages_organization_guilds
		}
		else_if = {	
			limit = {
				has_country_flag = mage_organization_centralized_flag
				OR = {
					religion = ravelian
					religion = the_jadd
					religion = bulwari_sun_cult
					religion = old_bulwari_sun_cult
					religion = xhazobkult
					religion = skaldhyrric_faith 
				}
			}
			set_estate_privilege = estate_mages_organization_religious
		}
		else_if = {	
			limit = {
				has_country_flag = mage_organization_centralized_flag
			}
			set_estate_privilege = estate_mages_organization_state
		}
		else_if = {	
			limit = {
				has_country_flag = mage_organization_magisterium_flag
			}
			set_estate_privilege = estate_mages_organization_magisterium
		}
		else = {	#if nothing - THIS IS HANDLED BY MageOrganization Event to allow new countries to choose!
			set_estate_privilege = estate_mages_organization_guilds
		}
	}
}

#Country Setup for Evil Opinions
country_event = {
	id =  anbennar_setup.7
	title =  anbennar_setup.7.t
	desc =  anbennar_setup.7.d
	picture = WAR_OF_THE_ROSES_eventPicture
	
	#fire_only_once = yes
	hidden = yes
	is_triggered_only = yes
	
	trigger = {
		NOT = { has_country_flag = init_evil_opinion }
	}
	
	option = {		
		name = "anbennar_setup.1.a"
		
		set_country_flag = init_evil_opinion
		
        if = {
            limit = {
                has_country_modifier = witch_king_modifier
            }
			every_country = {	#If you're a monstrous nation you like other monstrous nations
				limit = {
					has_country_modifier = witch_king_modifier
					NOT = { 
						has_opinion_modifier = { who = ROOT modifier = both_evil } 
					}
				}
				add_opinion = { who = ROOT modifier = both_evil }
			}
			every_country = {	#If you're not a monstrous nation you hate monstrous nations
				limit = {
					NOT = { has_country_modifier = witch_king_modifier }
					NOT = { 
						has_opinion_modifier = { who = ROOT modifier = root_evil } 
					}
				}
				add_opinion = { who = ROOT modifier = root_evil }
			}
		}
		
        if = {
            limit = {
                NOT = { has_country_modifier = witch_king_modifier }
            }
			every_country = {	#If you're a monstrous nation you like other monstrous nations
				limit = {
					has_country_modifier = witch_king_modifier
					NOT = { 
						has_opinion_modifier = { who = ROOT modifier = root_evil } 
					}
				}
				add_opinion = { who = ROOT modifier = root_evil }
			}
		}
	}
}

#Remove the Evil opinion
country_event = {
	id =  anbennar_setup.8
	title =  anbennar_setup.8.t
	desc =  anbennar_setup.8.d
	picture = WAR_OF_THE_ROSES_eventPicture
	
	hidden = yes
	is_triggered_only = yes
	
	option = {		
		name = "anbennar_setup.5.a"
		
		every_country = {	#If you're a monstrous nation you like other monstrous nations
			remove_opinion = { who = ROOT modifier = both_evil }
			remove_opinion = { who = ROOT modifier = root_evil }
		}
	}
			# every_country = {	#If you're not a monstrous nation you hate monstrous nations
				# limit = {
					# #NOT = { has_country_modifier = monstrous_nation }
					# NOT = { 
						# has_opinion_modifier = { who = ROOT modifier = root_monstrous } 
					# }
				# }
				# remove_opinion = { who = ROOT modifier = root_monstrous }
			# }
			# every_country = {	#If you're a monstrous nation you like other monstrous nations
				# limit = {
					# has_country_modifier = monstrous_nation
					# NOT = { 
						# has_opinion_modifier = { who = ROOT modifier = root_monstrous } 
					# }
				# }
				# remove_opinion = { who = ROOT modifier = root_monstrous }
			# }
		
        # if = {
            # limit = {
                # has_country_modifier = monstrous_nation
            # }
			# every_country = {	#If you're a monstrous nation you like other monstrous nations
				# limit = {
					# #has_country_modifier = monstrous_nation
					# NOT = { 
						# has_opinion_modifier = { who = ROOT modifier = both_monstrous } 
					# }
				# }
				# remove_opinion = { who = ROOT modifier = both_monstrous }
			# }
			# every_country = {	#If you're not a monstrous nation you hate monstrous nations
				# limit = {
					# #NOT = { has_country_modifier = monstrous_nation }
					# NOT = { 
						# has_opinion_modifier = { who = ROOT modifier = root_monstrous } 
					# }
				# }
				# remove_opinion = { who = ROOT modifier = root_monstrous }
			# }
		# }
		
        # if = {
            # limit = {
                # NOT = { has_country_modifier = monstrous_nation }
            # }
			# every_country = {	#If you're a monstrous nation you like other monstrous nations
				# limit = {
					# has_country_modifier = monstrous_nation
					# NOT = { 
						# has_opinion_modifier = { who = ROOT modifier = root_monstrous } 
					# }
				# }
				# remove_opinion = { who = ROOT modifier = root_monstrous }
			# }
		# }
	#}
}

#Startup Racial Admin and Military at start
country_event = {
	id =  anbennar_setup.9
	title =  anbennar_setup.9.t
	desc =  anbennar_setup.9.d
	picture = WAR_OF_THE_ROSES_eventPicture
	
	#fire_only_once = yes
	hidden = yes
	is_triggered_only = yes
	
	trigger = {
		#NOT = { has_country_flag = init_racial_admin_mil }
		OR = {
			NOT = { has_any_racial_administration = yes }
			NOT = { has_any_racial_military = yes }
		}
		#is_year = 1444
	}
	
	immediate = {
		clear_racial_administration = yes
		clear_racial_military = yes
	}

	option = {		
		name = "anbennar_setup.1.a"
		
		#Elven
		if = {
			limit = {
				culture_group = elven
				NOT = {
					AND = {
						primary_culture = sun_elf
						capital_scope = { superregion = bulwar_superregion }
						NOT = { tag = F46 }
					}
				}
			}
			add_country_modifier = { 
				name = elven_administration
				duration = -1  
			}
			add_country_modifier = { 
				name = elven_military
				duration = -1  
			}
			set_country_flag = init_racial_admin_mil
		}
		
		#Elven Bulwari
		if = {
			limit = {
				primary_culture = sun_elf
				capital_scope = { superregion = bulwar_superregion }
			}
			add_country_modifier = { 
				name = elven_administration
				duration = -1  
			}
			add_country_modifier = { 
				name = human_military
				duration = -1  
			}
			set_country_flag = init_racial_admin_mil
		}
		
		#Dwarven
		if = {
			limit = {
				culture_group = dwarven
			}
			add_country_modifier = { 
				name = dwarven_administration
				duration = -1  
			}
			add_country_modifier = { 
				name = dwarven_military
				duration = -1  
			}
			set_country_flag = init_racial_admin_mil
		}
		
		#Gnollish
		if = {
			limit = {
				culture_group = gnollish
			}
			add_country_modifier = { 
				name = gnollish_administration
				duration = -1  
			}
			add_country_modifier = { 
				name = gnollish_military
				duration = -1  
			}
			set_country_flag = init_racial_admin_mil
		}
		
		#gnomish
		if = {
			limit = {
				culture_group = gnomish
			}
			add_country_modifier = { 
				name = gnomish_administration
				duration = -1  
			}
			add_country_modifier = { 
				name = gnomish_military
				duration = -1  
			}
			set_country_flag = init_racial_admin_mil
		}
		
		#goblin
		if = {
			limit = {
				culture_group = goblin
			}
			add_country_modifier = { 
				name = goblin_administration
				duration = -1  
			}
			add_country_modifier = { 
				name = goblin_military
				duration = -1  
			}
			set_country_flag = init_racial_admin_mil
		}
		
		
		#half_elven
		if = {
			limit = {
				culture_is_half_elven = yes
			}
			add_country_modifier = { 
				name = half_elven_administration
				duration = -1  
			}
			add_country_modifier = { 
				name = half_elven_military
				duration = -1  
			}
			set_country_flag = init_racial_admin_mil
		}
		
		#half_orcish
		if = {
			limit = {
				culture_is_half_orcish = yes
			}
			add_country_modifier = { 
				name = half_orcish_administration
				duration = -1  
			}
			add_country_modifier = { 
				name = half_orcish_military
				duration = -1  
			}
			set_country_flag = init_racial_admin_mil
		}
		
		#halfling
		if = {
			limit = {
				culture_group = halfling
			}
			add_country_modifier = { 
				name = halfling_administration
				duration = -1  
			}
			add_country_modifier = { 
				name = halfling_military
				duration = -1  
			}
			set_country_flag = init_racial_admin_mil
		}
		
		#harpy
		if = {
			limit = {
				culture_group = harpy
			}
			add_country_modifier = { 
				name = harpy_administration
				duration = -1  
			}
			add_country_modifier = { 
				name = harpy_military
				duration = -1  
			}
			set_country_flag = init_racial_admin_mil
		}
		
		#Human
		if = {
			limit = {
				culture_group_is_human = yes
			}
			add_country_modifier = { 
				name = human_administration
				duration = -1  
			}
			add_country_modifier = { 
				name = human_military
				duration = -1  
			}
			set_country_flag = init_racial_admin_mil
		}
		
		#kobold
		if = {
			limit = {
				culture_group = kobold
			}
			add_country_modifier = { 
				name = kobold_administration
				duration = -1  
			}
			add_country_modifier = { 
				name = kobold_military
				duration = -1  
			}
			set_country_flag = init_racial_admin_mil
		}
		
		#orcish
		if = {
			limit = {
				culture_group = orcish
			}
			add_country_modifier = { 
				name = orcish_administration
				duration = -1  
			}
			add_country_modifier = { 
				name = orcish_military
				duration = -1  
			}
			set_country_flag = init_racial_admin_mil
		}
		
		#ruinborn
		if = {
			limit = {
				culture_group_is_ruinborn = yes
			}
			add_country_modifier = { 
				name = ruinborn_administration
				duration = -1  
			}
			add_country_modifier = { 
				name = ruinborn_military
				duration = -1  
			}
			set_country_flag = init_racial_admin_mil
		}
		
		#troll
		if = {
			limit = {
				culture_is_troll = yes
			}
			add_country_modifier = { 
				name = troll_administration
				duration = -1  
			}
			add_country_modifier = { 
				name = troll_military
				duration = -1  
			}
			set_country_flag = init_racial_admin_mil
		}
		
		#ogre
		if = {
			limit = {
				culture_group = ogre
			}
			add_country_modifier = { 
				name = ogre_administration
				duration = -1  
			}
			add_country_modifier = { 
				name = ogre_military
				duration = -1  
			}
			set_country_flag = init_racial_admin_mil
		}
		
		# #centaur
		if = {
			limit = {
				culture_group = centaur
			}
			add_country_modifier = { 
				name = centaur_administration
				duration = -1  
			}
			add_country_modifier = { 
				name = centaur_military
				duration = -1  
			}
			set_country_flag = init_racial_admin_mil
		}
		
		#harimari
		if = {
			limit = {
				culture_group = harimari
			}
			add_country_modifier = { 
				name = harimari_administration
				duration = -1  
			}
			add_country_modifier = { 
				name = harimari_military
				duration = -1  
			}
			set_country_flag = init_racial_admin_mil
		}
		
		#hobgoblin
		if = {
			limit = {
				culture_group = hobgoblin
			}
			add_country_modifier = { 
				name = hobgoblin_administration
				duration = -1
			}
			add_country_modifier = { 
				name = hobgoblin_military
				duration = -1
			}
			set_country_flag = init_racial_admin_mil
		}
		
	}
}


#Country Setup for Adventurer opinions
country_event = {
	id =  anbennar_setup.10
	title =  anbennar_setup.10.t
	desc =  anbennar_setup.10.d
	picture = WAR_OF_THE_ROSES_eventPicture
	
	#fire_only_once = yes
	hidden = yes
	is_triggered_only = yes
	
	trigger = {
		
		AND = {
			is_year = 1444
			NOT = { is_year = 1445 }
		}
		#NOT = { is_year = 1444 }
		
		tag = B02	#just for optimization I guess
		
		NOT = { has_global_flag = init_adventurer_opinion }
	}

	
	option = {		
		name = "anbennar_setup.2.a"
		
		set_global_flag = init_adventurer_opinion
		
		every_country = {
			limit = {
				OR = {
					AND = {
						has_reform = adventurer_reform
						capital_scope = { continent = europe }
					}
					tag = B55
					tag = B36
				}
			}
			
			# If you're a adventurer
			if = {
				limit = {
					OR = {
						AND = {
							has_reform = adventurer_reform
							capital_scope = { continent = europe }
						}
						tag = B55
						tag = B36
					}
				}
				every_country = {	# Adventurer likes each other more
					limit = {
						OR = {
							AND = {
								has_reform = adventurer_reform
								capital_scope = { continent = europe }
							}
							tag = B55
							tag = B36
						}
					}
					add_opinion = { who = PREV modifier = opinion_fought_alongside_corin }
				}
			}

		}
	}
}

#Base Setup for Adventurer Type
country_event = {
	id =  anbennar_setup.11
	title =  anbennar_setup.11.t
	desc =  anbennar_setup.11.d
	picture = WAR_OF_THE_ROSES_eventPicture
	
	#fire_only_once = yes
	hidden = yes
	is_triggered_only = yes
	
	trigger = {
		has_adventurers_organization_privilege = no
		has_estate = estate_adventurers
	}	

	
	option = {
		name = "anbennar_setup.11.a"
		set_estate_privilege = estate_adventurers_organization_land_of_adventure
	}
}


#Reduce vanilla estate land share to give 30% crown land
country_event = {
	id =  anbennar_setup.12
	title =  anbennar_setup.12.t
	desc =  anbennar_setup.12.d
	picture = WAR_OF_THE_ROSES_eventPicture
	
	fire_only_once = yes
	hidden = yes
	is_triggered_only = yes
	
	trigger = {
		tag = A01
		is_year = 1444
	}	

	
	option = {
		name = "anbennar_setup.12.a"
		
			every_country = {
			limit = { NOT = { crown_land_share = 31 } }
			change_estate_land_share = {
				estate = estate_church
				share = -0.01
			}
			change_estate_land_share = {
				estate = estate_nobiliyu
				share = -0.01
			}
			change_estate_land_share = {
				estate = estate_burghers
				share = -0.01
			}
		}
	}
}

#Stop adventurers from colonizing when they are made
country_event = {
	id =  anbennar_setup.13
	title =  anbennar_setup.13.t
	desc =  anbennar_setup.13.d
	picture = WAR_OF_THE_ROSES_eventPicture
	
	#fire_only_once = yes
	hidden = yes
	#is_triggered_only = yes
	
	trigger = {
		ai = yes
		is_year = 1444
		NOT = { is_year = 1446 }
		OR = {
			has_reform = adventurer_reform
			has_reform = dwarovar_warband
			has_reform = roaming_horde
		}
		
		NOT = { has_country_flag = adventurer_setup }
	}	
	
	mean_time_to_happen = {
		months = 2
	}

	
	option = {
		name = "anbennar_setup.11.a"

		if = {
			limit = { 
				capital_scope = { 
					continent = serpentspine
				} 
			}
			if = { #Due to MTTH of 2 months, fast dwarf bois can sometimes get to a hold too fast and get slapped with the timer, especially if things happen in the wrong order. Avoid this.
				limit = {
					capital_scope = { 
						NOT = { 
							OR = {
								has_terrain = dwarven_hold
								has_terrain = dwarven_hold_surface
							}
						}
					}
				}
				add_country_modifier = { 
					name = dont_colonize_but_migrate
					duration = 3650
				}
			}
		}
		else = {
			add_country_modifier = { 
				name = dont_colonize_but_migrate
				duration = 1095
			}
		}
		set_country_flag = adventurer_setup
		
	}
}

# #Stop adventurers from colonizing when they are made
# country_event = {
	# id =  anbennar_setup.14
	# title =  anbennar_setup.14.t
	# desc =  anbennar_setup.14.d
	# picture = WAR_OF_THE_ROSES_eventPicture
	
	# fire_only_once = yes
	# hidden = yes
	# is_triggered_only = yes
	
	# trigger = {
		# tag = A01
	# }	

	
	# option = {
		# name = "anbennar_setup.11.a"
		
		# every_country = {
			# limit = { has_reform = adventurer_reform }

			# add_country_modifier = { 
				# name = dont_colonize_but_migrate
				# duration = 730
			# }
		# }
		
		
	# }
# }