###########################################################
# Events for the Adventurer Estate
#
# written by Tus3
###########################################################

namespace = adventurers_estate_events


#Advancement of the Adventurers
country_event = {
	id = adventurers_estate_events.1
	title = adventurers_estate_events.1.t
	desc = adventurers_estate_events.1.d
	picture = COSSACK_ESTATE_eventPicture
	
	is_triggered_only = yes
	
	trigger = {

		has_estate = estate_adventurers
		NOT = {
			has_estate_influence_modifier = {
				estate = estate_adventurers
				modifier = EST_VAL_ADVENTURERS_ADVANCES
			}
		}
		NOT = {
			has_estate_influence_modifier = {
				estate = estate_adventurers
				modifier = EST_VAL_ADVENTURERS_ADVANCES_20
			}
		}
		NOT = {
			has_estate_influence_modifier = {
				estate = estate_adventurers
				modifier = EST_VAL_ADVENTURERS_DECLINES
			}
		}
	}
	
	mean_time_to_happen = {
		days = 1
	}
	

	option = {
		name = adventurers_estate_events.1.a #Ok
		add_estate_influence_modifier = {
			estate = estate_adventurers
			desc = EST_VAL_ADVENTURERS_ADVANCE
			influence = 10
			duration = 5475
		}
	}
}

#Decline of Adventurer Power
country_event = {
	id = adventurers_estate_events.2
	title = adventurers_estate_events.2.t
	desc = adventurers_estate_events.2.d
	picture = COSSACK_ESTATE_eventPicture
	
	trigger = {

		has_estate = estate_adventurers
		NOT = {
			has_estate_influence_modifier = {
				estate = estate_adventurers
				modifier = EST_VAL_ADVENTURERS_ADVANCES
			}
		}
		NOT = {
			has_estate_influence_modifier = {
				estate = estate_adventurers
				modifier = EST_VAL_ADVENTURERS_ADVANCES_20
			}
		}
		NOT = {
			has_estate_influence_modifier = {
				estate = estate_adventurers
				modifier = EST_VAL_ADVENTURERS_DECLINES
			}
		}
	}
	
	is_triggered_only = yes
	
	mean_time_to_happen = {
		days = 1
	}
	
	option = {
		name = adventurers_estate_events.2.a #Ok
		add_estate_influence_modifier = {
			estate = estate_adventurers
			desc = EST_VAL_ADVENTURERS_DECLINES
			influence = -10
			duration = 5475
		}
	}
}

#Military Commisions
#Adventurers vs Nobles
country_event = {
	id = adventurers_estate_events.3
	title = adventurers_estate_events.3.t
	desc = adventurers_estate_events.3.d
	picture = COSSACK_ESTATE_eventPicture
	
	trigger = {

		has_estate = estate_adventurers
		has_estate = estate_nobles
		NOT = {
			has_estate_influence_modifier = {
				estate = estate_adventurers
				modifier = EST_VAL_NO_COMMISSIONS_FOR_ADVENTURERS
			}
		}
		NOT = {
			has_estate_influence_modifier = {
				estate = estate_adventurers
				modifier = EST_VAL_COMMISSIONS_FOR_ADVENTURERS
			}
		}

	}
	
	mean_time_to_happen = {
		days = 1
	}
	
	is_triggered_only = yes
	
	
	
	option = {
		name = adventurers_estate_events.3.a #Ok.
		ai_chance = {
			factor = 50
			modifier = {
				factor = 0.5
				NOT = {
					estate_loyalty = {
						estate = estate_adventurers
						loyalty = 40
					}
				}
			}
			modifier = {
				factor = 1.5
				estate_influence = {
					estate = estate_adventurers
					influence = 60
				}
			}
			modifier = {
				factor = 0.5
				estate_influence = {
					estate = estate_nobles
					influence = 60
				}
			}
		}

		reduce_estate_adventurers_loyalty_effect = yes
		add_estate_influence_modifier = {
			estate = estate_adventurers
			desc = EST_VAL_NO_COMMISSIONS_FOR_ADVENTURERS
			influence = -10
			duration = 3650
		}

		add_army_tradition = -5
	}
	option = {
		name = adventurers_estate_events.3.b #We promote on merit.
		ai_chance = {
			factor = 50
			modifier = {
				factor = 0.2
				NOT = {
					estate_loyalty = {
						estate = estate_nobles
						loyalty = 40
					}
				}
			}
			modifier = {
				factor = 0.5
				estate_influence = {
					estate = estate_adventurers
					influence = 60
				}
			}
			modifier = {
				factor = 1.5
				estate_influence = {
					estate = estate_nobles
					influence = 60
				}
			}
		}
		reduce_estate_nobles_loyalty_effect = yes

		add_estate_influence_modifier = {
			estate = estate_nobles
			desc = EST_VAL_COMMISSIONS_FOR_ADVENTURERS
			influence = -10
			duration = 3650
		}
	}
}

#Peasant flight
#Adventurers vs Nobles
country_event = {
	id = adventurers_estate_events.4
	title = adventurers_estate_events.4.t
	desc = adventurers_estate_events.4.d
	picture = COSSACK_ESTATE_eventPicture
	
	trigger = {

		has_estate = estate_adventurers
		estate_influence = {
			estate = estate_nobles
			influence = 40
		}
		estate_influence = {
			estate = estate_adventurers
			influence = 30
		}
		NOT = {
			has_estate_influence_modifier = {
				estate = estate_adventurers
				modifier = EST_VAL_SERFS_HUNTED
			}
		}
		NOT = {
			has_estate_influence_modifier = {
				estate = estate_adventurers
				modifier = EST_VAL_SERFS_TO_COSSACKS
			}
		}
		
		num_of_cities = 10

	}
	
	mean_time_to_happen = {
		days = 1
	}
	
	is_triggered_only = yes
	
	immediate = {
		hidden_effect = {
			random_owned_province = {

				save_event_target_as = serfs_are_arriving_province
			}
			random_owned_province = {

				save_event_target_as = serfs_are_fleeing_province
			}
		}
	}
	
	option = {
		name = adventurers_estate_events.4.a #These Serfs must be brought back.
		ai_chance = {
			factor = 50
			modifier = {
				factor = 0.5
				NOT = {
					estate_loyalty = {
						estate = estate_adventurers
						loyalty = 40
					}
				}
			}
			modifier = {
				factor = 1.5
				estate_influence = {
					estate = estate_adventurers
					influence = 60
				}
			}
			modifier = {
				factor = 0.5
				estate_influence = {
					estate = estate_nobles
					influence = 60
				}
			}
		}
		add_estate_loyalty = {
			estate = estate_adventurers
			loyalty = -15
		}
		add_estate_influence_modifier = {
			estate = estate_adventurers
			desc = EST_VAL_SERFS_HUNTED
			influence = -10
			duration = 3650
		}
		add_estate_influence_modifier = {
			estate = estate_nobles
			desc = EST_VAL_SERFS_BROUGHT_BACK
			influence = 10
			duration = 3650
		}
	}
	
	option = {
		name = adventurers_estate_events.4.b #We cannot afford to anger the Adventurers.
		goto = serfs_are_arriving_province
		ai_chance = {
			factor = 50
			modifier = {
				factor = 0.2
				NOT = {
					estate_loyalty = {
						estate = estate_nobles
						loyalty = 40
					}
				}
			}
			modifier = {
				factor = 0.5
				estate_influence = {
					estate = estate_adventurers
					influence = 60
				}
			}
			modifier = {
				factor = 1.5
				estate_influence = {
					estate = estate_nobles
					influence = 60
				}
			}
		}
		add_estate_loyalty = {
			estate = estate_nobles
			loyalty = -15
		}
		add_estate_influence_modifier = {
			estate = estate_adventurers
			desc = EST_VAL_SERFS_TO_COSSACKS
			influence = 10
			duration = 3650
		}
		add_estate_influence_modifier = {
			estate = estate_nobles
			desc = EST_VAL_SERFS_DEFECTING
			influence = -10
			duration = 3650
		}
		event_target:serfs_are_fleeing_province = {
			add_base_production = -1
		}
		event_target:serfs_are_arriving_province = {
			add_base_manpower = 1
		}
	}
}

#Merchant Refuses to Pay Adventurers
country_event = {
	id = adventurers_estate_events.5
	title = adventurers_estate_events.5.t
	desc = adventurers_estate_events.5.d
	picture = BURGHER_ESTATE_UPSET_eventPicture
	
	trigger = {

		has_estate = estate_adventurers
		has_estate = estate_burghers
		NOT = {
			has_estate_influence_modifier = {
				estate = estate_adventurers
				modifier = EST_VAL_SUPPORTED_ADVENTURERS
			}
		}
		NOT = {
			has_estate_influence_modifier = {
				estate = estate_adventurers
				modifier = EST_VAL_SUPPORTED_BURGHERS_VS_ADVENTURERS
			}
		}
	}
	
	is_triggered_only = yes
	
	mean_time_to_happen = {
		days = 1
	}
	
	option = {
		name = adventurers_estate_events.5.a #Force the merchants to pay
		ai_chance = {
			factor = 50
			modifier = {
				factor = 0.5
				NOT = {
					estate_loyalty = {
						estate = estate_burghers
						loyalty = 40
					}
				}
			}
			modifier = {
				factor = 0.5
				estate_influence = {
					estate = estate_adventurers
					influence = 60
				}
			}
		}
		add_estate_loyalty = {
			estate = estate_adventurers
			loyalty = 10
		}
		add_estate_loyalty = {
			estate = estate_burghers
			loyalty = -15
		}
		add_estate_influence_modifier = {
			estate = estate_adventurers
			desc = EST_VAL_SUPPORTED_ADVENTURERS
			influence = 10
			duration = 5475
		}
		add_estate_influence_modifier = {
			estate = estate_burghers
			desc = EST_VAL_SUPPORTED_ADVENTURERS
			influence = -10
			duration = 5475
		}
	}
	option = {
		name = adventurers_estate_events.5.b #Support merchant - thats what I call a shrewd merchant
		ai_chance = {
			factor = 50
			modifier = {
				factor = 0.5
				NOT = {
					estate_loyalty = {
						estate = estate_adventurers
						loyalty = 40
					}
				}
			}
			modifier = {
				factor = 0.5
				estate_influence = {
					estate = estate_burghers
					influence = 60
				}
			}
		}
		add_estate_loyalty = {
			estate = estate_adventurers
			loyalty = -15
		}
		add_estate_loyalty = {
			estate = estate_burghers
			loyalty = 10
		}
		add_estate_influence_modifier = {
			estate = estate_adventurers
			desc = EST_VAL_SUPPORTED_BURGHERS_VS_ADVENTURERS
			influence = -10
			duration = 5475
		}
		add_estate_influence_modifier = {
			estate = estate_burghers
			desc = EST_VAL_SUPPORTED_BURGHERS_VS_ADVENTURERS
			influence = 10
			duration = 5475
		}
	}
}

#Adventurers Insult Clergy
country_event = {
	id = adventurers_estate_events.6
	title = adventurers_estate_events.6.t
	desc = adventurers_estate_events.6.d
	picture = CHURCH_ESTATE_UPSET_eventPicture
	
	trigger = {

		has_estate = estate_adventurers
		has_estate = estate_church
		
		NOT = {
			has_estate_influence_modifier = {
				estate = estate_church
				modifier = EST_VAL_UNDERMINED_BY_ADVENTURERS
			}
		}

	}
	
	is_triggered_only = yes
	
	mean_time_to_happen = {
		days = 1
		modifier = {
			factor = 1.5
			OR = {	#religions more open for ridicule
				religion = ravelian
				religion = corinite
				religion = bulwari_sun_cult
				religion = khetist
				religion = high_philosophy
			}
		}
	}
	
	option = {
		name = adventurers_estate_events.6.a #Punish the adventurers
		ai_chance = {
			factor = 50
			modifier = {
				factor = 1.5
				estate_influence = {
					estate = estate_adventurers
					influence = 60
				}
			}
		}
		add_estate_loyalty = {
			estate = estate_adventurers
			loyalty = -20
		}
	}
	option = {
		name = adventurers_estate_events.6.b #Let them go
		ai_chance = {
			factor = 50
			modifier = {
				factor = 0.5
				NOT = {
					estate_loyalty = {
						estate = estate_adventurers
						loyalty = 40
					}
				}
			}
			modifier = {
				factor = 1.5
				estate_influence = {
					estate = estate_church
					influence = 70
				}
			}
		}

		add_estate_adventurers_loyalty_effect = yes
		reduce_estate_church_loyalty_effect = yes
		add_estate_influence_modifier = {
			estate = estate_church
			desc = EST_VAL_UNDERMINED_BY_ADVENTURERS
			influence = -10
			duration = 5475
		}
		
		
	}
}

#Adventurers refuse to hand over Artifact to Artificers
country_event = {
	id = adventurers_estate_events.7
	title = adventurers_estate_events.7.t
	desc = adventurers_estate_events.7.d
	picture = GOLDEN_STOOL_eventPicture
	
	trigger = {

		has_estate = estate_adventurers
		has_estate = estate_artificers
		
		NOT = {
			has_estate_influence_modifier = {
				estate = estate_artificers
				modifier = EST_VAL_EXPLOITING_ARTIFACTS
			}
		}

	}
	
	is_triggered_only = yes
	
	mean_time_to_happen = {
		days = 1
	}
	
	option = {
		name = adventurers_estate_events.7.a #Side with adventurers
		ai_chance = {
			factor = 50
			modifier = {
				factor = 1.5
				NOT = {
					estate_loyalty = {
						estate = estate_adventurers
						loyalty = 60
					}
				}
			}
		}
		add_estate_loyalty = {
			estate = estate_adventurers
			loyalty = 10
		}
		add_estate_loyalty = {
			estate = estate_artificers
			loyalty = -15
		}
	}
	option = {
		name = adventurers_estate_events.7.b #Side with artificers
		ai_chance = {
			factor = 50
			modifier = {
				factor = 0.5
				NOT = {
					estate_loyalty = {
						estate = estate_adventurers
						loyalty = 40
					}
				}
			}
			modifier = {
				factor = 1.5
				NOT = {
					estate_influence = {
						estate = estate_artificers
						influence = 30
					}
				}
			}
		}
		add_mil_power = -25
		
		add_estate_loyalty = {
			estate = estate_adventurers
			loyalty = -15
		}
		add_estate_loyalty = {
			estate = estate_artificers
			loyalty = 10
		}
		
		add_estate_influence_modifier = {
			estate = estate_artificers
			desc = EST_VAL_EXPLOITING_ARTIFACTS
			influence = 10
			duration = 5475
		}
	}
}

#Adventurers hired by the country cause faux pas
country_event = {
	id = adventurers_estate_events.8
	title = adventurers_estate_events.8.t
	desc = adventurers_estate_events.8.d
	picture = BABBLING_BAFFOON_eventPicture
	
	trigger = {

		has_estate = estate_adventurers

	}
	
	is_triggered_only = yes
	
	mean_time_to_happen = {
		days = 1
	}
	
	option = {
		name = adventurers_estate_events.8.a #Sigh
		ai_chance = {
			factor = 50
			modifier = {
				factor = 0.5
				NOT = { prestige = 10 }
			}
		}
		
		add_prestige = -20

	}
	option = {
		name = adventurers_estate_events.8.b #Try and save face
		ai_chance = {
			factor = 50
			modifier = {
				factor = 0.5
				NOT = { adm_power = 100 }
			}
		}
		
		add_adm_power = -50
		
		reduce_estate_adventurers_loyalty_effect = yes
		
	}
}

#Retired Adventurers Buy Land
country_event = {
	id = adventurers_estate_events.9
	title = adventurers_estate_events.9.t
	desc = adventurers_estate_events.9.d
	picture = ADVISOR_eventPicture
	
	trigger = {

		has_estate = estate_adventurers
		estate_influence = {
			estate = estate_adventurers
			influence = 40
		}
		
		crown_land_share = 20
		
		NOT = {
			has_estate_influence_modifier = {
				estate = estate_adventurers
				modifier = EST_VAL_ADVICE_FROM_LOYAL_RETIRED_ADVENTURERS
			}
		}

	}
	
	is_triggered_only = yes
	
	mean_time_to_happen = {
		days = 1
	}
	
	option = {
		name = adventurers_estate_events.9.a #Let them do as they please
		ai_chance = {
			factor = 50
			modifier = {
				factor = 0.5
				NOT = {
					estate_loyalty = {
						estate = estate_adventurers
						loyalty = 40
					}
				}
			}
			modifier = {
				factor = 1.5
				NOT = {
					estate_influence = {
						estate = estate_adventurers
						influence = 15
					}
				}
			}
		}

		scaled_estate_adventurers_land_share_effect = yes

	}
	option = {
		name = adventurers_estate_events.9.b #Stop them from buying more land
		ai_chance = {
			factor = 50
			modifier = {
				factor = 0
				NOT = { years_of_income = 1 }
			}
		}
		
		add_years_of_income = -0.25
		
		add_estate_loyalty_modifier = {
			estate = estate_adventurers
			desc = EST_VAL_ADVICE_FROM_LOYAL_RETIRED_ADVENTURERS
			loyalty = 10
			duration = 7300
		}
		
		scaled_estate_adventurers_land_share_effect = yes
	}
}

#Demands - Too many adventurers
country_event = {
	id = adventurers_estate_events.10
	title = adventurers_estate_events.10.t
	desc = adventurers_estate_events.10.d
	picture = COSSACK_ESTATE_eventPicture
	
	trigger = {

		has_estate = estate_adventurers
		has_estate_privilege = estate_adventurers_organization_land_of_adventure
		
		estate_influence = {
			estate = estate_adventurers
			influence = 70
		}
		
		NOT = { has_country_modifier = too_many_adventurers }
		
	}
	
	is_triggered_only = yes
	
	mean_time_to_happen = {
		days = 1
	}
	
	
	option = {
		name = adventurers_estate_events.10.a #
		
		add_country_modifier = {
			name = too_many_adventurers
			duration = 3650
		}
	}

}

#Org Licensed - Fake Licenses
country_event = {
	id = adventurers_estate_events.11
	title = adventurers_estate_events.11.t
	desc = adventurers_estate_events.11.d
	picture = BANKRUPTCY_eventPicture
	
	trigger = {

		has_estate = estate_adventurers

		has_estate_privilege = estate_adventurers_organization_licensed_adventurers
		
		NOT = {
			has_estate_influence_modifier = {
				estate = estate_adventurers
				modifier = EST_VAL_ADVENTURER_UNQUALIFIED_ADVENTURERS
			}
		}

	}
	
	is_triggered_only = yes
	
	mean_time_to_happen = {
		days = 1
	}
	
	option = {
		name = adventurers_estate_events.11.a #Expedite
		ai_chance = {
			factor = 50
			modifier = {	
				factor = 0.5
				NOT = { years_of_income = 0.5 }
			}	
		}
		
		add_corruption = 1

		add_estate_influence_modifier = {
			estate = estate_adventurers
			desc = EST_VAL_ADVENTURER_UNQUALIFIED_ADVENTURERS
			influence = -10
			duration = 3650
		}
	}
	option = {
		name = adventurers_estate_events.11.b #Let them go through the tests fully
		ai_chance = {
			factor = 50
		}

		reduce_estate_adventurers_loyalty_effect = yes
		
		add_country_modifier = {
			name = shortage_of_adventurers
			duration = 3650
		}

	}
}

#Loyal - Conquistador General
country_event = {
	id = adventurers_estate_events.12
	title = adventurers_estate_events.12.t
	desc = adventurers_estate_events.12.d
	picture = wihgfx_FEMALE_GENERAL_eventPicture
	
	trigger = {

		has_estate = estate_adventurers
		estate_loyalty = {
			estate = estate_adventurers
			loyalty = 70
		}
		estate_influence = {
			estate = estate_adventurers
			influence = 50
		}

	}
	
	is_triggered_only = yes
	
	immediate = {
		hidden_effect = {
			set_saved_name = {
				key = root_name_male
				type = advisor
				scope = ROOT
			}
			set_saved_name = {
				key = root_name_female
				type = advisor
				female = yes
				scope = ROOT
			}
		}
	}
	
	mean_time_to_happen = {
		days = 1
	}
	
	option = {
		name = adventurers_estate_events.12.a #
		ai_chance = {
			factor = 50
			modifier = {
				factor = 2
				is_at_war = yes
			}
		}
		random_list = {
			50 = {
				define_conquistador = {
					shock = 4
					fire = 2
					manuever = 5
					siege = 0
					name = root_name_male
				}
			}
			50 = {
				define_conquistador = {
					shock = 4
					fire = 2
					manuever = 5
					siege = 0
					female = yes
					name = root_name_female
				}
			}
		}
	}
	option = {
		name = adventurers_estate_events.12.b #
		ai_chance = {
			factor = 50
		}
		random_list = {
			50 = {
				define_advisor = {
					type = army_reformer
					name = root_name_male
					skill = 3
					culture = ROOT
					religion = ROOT
					discount = yes
				}
			}
			50 = {
				define_advisor = {
					type = army_reformer
					name = root_name_female
					skill = 3
					culture = ROOT
					religion = ROOT
					discount = yes
				}
			}
		}
	}
}

#Nice things can also come from strong and loyal Adventurers.
#Bonus for high influence + high loyalty

#They share their money and expertise
country_event = {
	id = adventurers_estate_events.13
	title = adventurers_estate_events.13.t
	desc = adventurers_estate_events.13.d
	picture = WESTERNISATION_eventPicture
	
	trigger = {

		has_estate = estate_adventurers

		estate_influence = {
			estate = estate_adventurers
			influence = 70
		}
		estate_loyalty = {
			estate = estate_adventurers
			loyalty = 70
		}
	}
	
	is_triggered_only = yes
	
	mean_time_to_happen = {
		days = 1
	}
	
	option = {
		name = adventurers_estate_events.13.a #
		add_army_tradition = 5
		add_years_of_income = 0.5
	}
}

#Special - Offer from Chroniclers
country_event = {
	id = adventurers_estate_events.14
	title = adventurers_estate_events.14.t
	desc = adventurers_estate_events.14.d
	picture = ENLIGHTENMENT_eventPicture
	
	trigger = {

		has_estate = estate_adventurers
		
		has_estate_privilege = estate_adventurers_organization_land_of_adventure
		
		has_discovered = 8 #Anbenncost
		
		total_development = 50
		
		is_year = 1500
		
		NOT = { has_country_flag = estate_event_chronicler_offer }

		NOT = {
			estate_influence = {
				estate = estate_adventurers
				influence = 20
			}
		}

	}
	
	is_triggered_only = yes
	
	mean_time_to_happen = {
		days = 1
	}
	
	option = {
		ai_chance = {
			factor = 50
			modifier = {
				factor = 1.5
				is_lacking_institutions = yes
			}
		}
		name = adventurers_estate_events.14.a #Chronicler
		
		remove_estate_privilege = estate_adventurers_organization_land_of_adventure
		set_estate_privilege = estate_adventurers_organization_chronicler_grants
		
		add_years_of_income = -0.25
		set_country_flag = estate_event_chronicler_offer
	}
	option = {
		ai_chance = {
			factor = 50
		}
		name = adventurers_estate_events.14.b #Nah
		
		add_estate_adventurers_loyalty_effect = yes
		
		set_country_flag = estate_event_chronicler_offer
	}
}

#Local Revolt
province_event = {
	id = adventurers_estate_events.15
	title = adventurers_estate_events.15.t
	desc = adventurers_estate_events.15.d
	picture = COSSACK_ESTATE_UPSET_eventPicture
	
	is_triggered_only = yes

	option = {
		name = adventurers_estate_events.15.a #Ok.
		
	}
}

#Disloyal - adventurers damage province
country_event = {
	id = adventurers_estate_events.16
	title = adventurers_estate_events.16.t
	desc = adventurers_estate_events.16.d
	picture = BORDER_TENSION_eventPicture
	goto = adventurer_province
	
	trigger = {

		has_estate = estate_adventurers

		NOT = {
			estate_loyalty = {
				estate = estate_adventurers
				loyalty = 30
			}
		}
		
		any_owned_province = {
			development = 15
			is_core = ROOT
			NOT = { devastation = 33 }
		}
	}
	
	is_triggered_only = yes
	
	immediate = {
			random_owned_province = {
				limit = {
					development = 15
					is_core = ROOT
					NOT = { devastation = 75 }
				}
				save_event_target_as = adventurer_province
			}
	}
	
	mean_time_to_happen = {
		days = 1
	}
	
	option = {
		name = adventurers_estate_events.16.a #arrest
		
		event_target:adventurer_province = {
			add_devastation = 33
		}
		
	}
}


#Disloyal - cucked by a bard
country_event = {
	id = adventurers_estate_events.17
	title = adventurers_estate_events.17.t
	desc = adventurers_estate_events.17.d
	picture = ACCUSATION_eventPicture
	
	trigger = {

		has_estate = estate_adventurers
		
		NOT = {
			estate_loyalty = {
				estate = estate_adventurers
				loyalty = 30
			}
		}
		
		has_consort = yes

	}
	
	is_triggered_only = yes
	
	mean_time_to_happen = {
		days = 1
	}
	
	option = {
		name = adventurers_estate_events.17.a #Get cucked
		ai_chance = {
			factor = 50
		}
		

		add_legitimacy = -20

	}
	option = {
		name = adventurers_estate_events.17.b #Divorce consort
		ai_chance = {
			factor = 50
			modifier = {
				factor = 0.5
				NOT = { adm_power = 100 }
			}
		}
		
		add_dip_power = -50
		
		add_legitimacy = -10
		
		remove_consort = yes
		
		
	}
}


#Disloyal & Influential - Undermine the State
country_event = {
	id = adventurers_estate_events.18
	title = adventurers_estate_events.18.t
	desc = adventurers_estate_events.18.d
	picture = NOBLE_ESTATE_TAKE_OVER_eventPicture
	
	trigger = {

		has_estate = estate_adventurers
		
		prestige = -50
		
		NOT = {
			estate_loyalty = {
				estate = estate_adventurers
				loyalty = 30
			}
		}
		
		estate_influence = {
			estate = estate_adventurers
			influence = 70
		}
		
		NOT = {
			has_estate_influence_modifier = {
				estate = estate_adventurers
				modifier = EST_VAL_UNDERMINING_THE_STATE
			}
		}

		NOT = {
			has_estate_influence_modifier = {
				estate = estate_adventurers
				modifier = EST_VAL_PUT_INTO_PLACE
			}
		}

	}
	
	is_triggered_only = yes
	
	mean_time_to_happen = {
		days = 1
	}
	
	option = {
		name = adventurers_estate_events.18.a #Take it
		ai_chance = {
			factor = 50
			modifier = {
				factor = 0.5
				NOT = { prestige = 30 }
			}
			modifier = {
				factor = 0
				NOT = { 
					estate_influence = {
						estate = estate_adventurers
						influence = 80
					}
				}
			}
		}
		
		add_prestige = -50
		
		add_estate_adventurers_loyalty_effect = yes
		
		add_estate_influence_modifier = {
			estate = estate_adventurers
			desc = EST_VAL_UNDERMINING_THE_STATE
			influence = 10
			duration = 3650
		}

	}
	option = {
		name = adventurers_estate_events.18.b #Put them in their place
		ai_chance = {
			factor = 50
			modifier = {
				factor = 0.5
				NOT = { mil_power = 100 }
			}
			modifier = {
				factor = 0
				NOT = { 
					estate_loyalty = {
						estate = estate_adventurers
						loyalty = 10
					}
				}
			}
			modifier = {
				factor = 1.25 
				estate_influence = {
					estate = estate_adventurers
					influence = 90
				}
			}
		}
		
		add_mil_power = -100
		
		reduce_estate_adventurers_loyalty_effect = yes
		
		add_estate_influence_modifier = {
			estate = estate_adventurers
			desc = EST_VAL_PUT_INTO_PLACE
			influence = -20
			duration = 3650
		}
		
	}
}


#Disloyal & Influential - Undermine the State
country_event = {
	id = adventurers_estate_events.19
	title = adventurers_estate_events.19.t
	desc = adventurers_estate_events.19.d
	picture = DEBATE_REPUBLICAN_eventPicture
	
	trigger = {

		has_estate = estate_adventurers

		NOT = {
			estate_loyalty = {
				estate = estate_adventurers
				loyalty = 40
			}
		}
		
		estate_influence = {
			estate = estate_adventurers
			influence = 70
		}
		
		NOT = {
			has_estate_influence_modifier = {
				estate = estate_adventurers
				modifier = EST_VAL_FORCED_COUNTRY_TO_GIVE_GREAT_REWARDS
			}
		}


	}
	
	is_triggered_only = yes
	
	mean_time_to_happen = {
		days = 1
	}
	
	option = {
		name = adventurers_estate_events.19.a #Pay it
		ai_chance = {
			factor = 50
			modifier = {
				factor = 0.5
				NOT = { years_of_income = 1.25 }
			}
			modifier = {
				factor = 0
				NOT = { 
					estate_influence = {
						estate = estate_adventurers
						influence = 80
					}
				}
			}
		}
		
		add_years_of_income = -1
		
		add_estate_influence_modifier = {
			estate = estate_adventurers
			desc = EST_VAL_FORCED_COUNTRY_TO_GIVE_GREAT_REWARDS
			influence = 10
			duration = 3650
		}

	}
	option = {
		name = adventurers_estate_events.19.b #Refuse them
		ai_chance = {
			factor = 50
			modifier = {
				factor = 0
				NOT = { 
					estate_loyalty = {
						estate = estate_adventurers
						loyalty = 30
					}
				}
			}
		}
		
		add_estate_loyalty = {
			estate = estate_adventurers
			loyalty = -20
		}
		
	}
}


#Loyal & Influential - Invest in Province
country_event = {
	id = adventurers_estate_events.20
	title = adventurers_estate_events.20.t
	desc = adventurers_estate_events.20.d
	picture = CITY_DEVELOPMENT_eventPicture
	goto = adventurer_province
	
	trigger = {

		has_estate = estate_adventurers

		estate_loyalty = {
			estate = estate_adventurers
			loyalty = 70
		}
		
		estate_influence = {
			estate = estate_adventurers
			influence = 70
		}
		
		any_owned_province = {
			is_core = ROOT
			NOT = { devastation = 1 }
		}

	}
	
	is_triggered_only = yes
	
	immediate = {
		random_owned_province = {
			limit = {
				is_core = ROOT
				NOT = { devastation = 1 }
			}
			save_event_target_as = adventurer_province
		}
	}
	
	mean_time_to_happen = {
		days = 1
	}
	
	option = {
		name = adventurers_estate_events.20.a #Thanks
		ai_chance = {
			factor = 50
			modifier = {
				factor = 0.5
				NOT = { years_of_income = 1.25 }
			}
			modifier = {
				factor = 0
				NOT = { 
					estate_influence = {
						estate = estate_adventurers
						influence = 80
					}
				}
			}
		}
		
		event_target:adventurer_province = {
			random_list = {
				1 = {
					add_base_tax = 2
				}
				1 = {
					add_base_production = 2
				}
				1 = {
					add_base_manpower = 2
				}
			}
		}

	}

}
